// Jest Snapshot v1, https://goo.gl/fbAQLP

exports[`cnyesAuth actions init should match snapshot 1`] = `
Object {
  "type": "cnyes/me/AUTH_INIT",
}
`;

exports[`cnyesAuth actions inited should match snapshot 1`] = `
Object {
  "type": "cnyes/me/AUTH_INITED",
}
`;

exports[`cnyesAuth actions login should match snapshot 1`] = `
Object {
  "token": "token",
  "type": "cnyes/me/AUTH_CONNECTED",
}
`;

exports[`cnyesAuth actions logout should match snapshot 1`] = `
Object {
  "type": "cnyes/me/AUTH_LOGOUT",
}
`;

exports[`cnyesAuth actions profilePut should match snapshot 1`] = `
Object {
  "profile": Object {
    "avatar": "https://example.org/avatar.png",
    "gender": "",
    "name": "fwef fewwaa",
    "uid": "435436fedf",
    "vip": 0,
  },
  "type": "cnyes/me/PROFILE_PUT",
}
`;
