// Jest Snapshot v1, https://goo.gl/fbAQLP

exports[`component <MobileMenu /> should be render nice 1`] = `
<MobileMenu
  dataPrefix={
    Array [
      "data-proj-ga",
    ]
  }
  hideTopBar={false}
  showCatBoard={[Function]}
>
  <div
    className="index-header-top-bar"
  >
    <a
      className="index-header-logo"
      data-proj-ga-action="click"
      data-proj-ga-category="Logo"
      data-proj-ga-label="home"
      href="https://m.cnyes.com/news"
    >
      鉅亨
    </a>
    <nav>
      <span
        className="index-header-menu"
        onClick={[Function]}
      />
    </nav>
  </div>
</MobileMenu>
`;
