// Jest Snapshot v1, https://goo.gl/fbAQLP

exports[`component <SlidingNews /> should be same as snapshot 1`] = `
<SlidingNews
  coverImageSize="l"
  defaultCoverImage={null}
  duration={3000}
  items={
    Array [
      Object {
        "coverSrc": Object {
          "l": Object {
            "src": "https://cimg.cnyes.cool/prod/news/4257985/l/04690339c84abdce487064140b136e2a.jpg",
          },
          "m": Object {
            "src": "https://cimg.cnyes.cool/prod/news/4257985/m/04690339c84abdce487064140b136e2a.jpg",
          },
          "xl": Object {
            "src": "https://cimg.cnyes.cool/prod/news/4257985/xl/04690339c84abdce487064140b136e2a.jpg",
          },
        },
        "hasCoverPhoto": 1,
        "newsId": 4257985,
        "title": "繼中國禁售令之後 德國暫停銷售iPhone 7和iPhone 8",
      },
      Object {
        "coverSrc": Object {
          "l": Object {
            "src": "https://cimg.cnyes.cool/prod/news/4258122/l/8e02b6a7af860076a90f41944a7927ba.jpg",
          },
          "m": Object {
            "src": "https://cimg.cnyes.cool/prod/news/4258122/m/8e02b6a7af860076a90f41944a7927ba.jpg",
          },
          "xl": Object {
            "src": "https://cimg.cnyes.cool/prod/news/4258122/xl/8e02b6a7af860076a90f41944a7927ba.jpg",
          },
        },
        "hasCoverPhoto": 1,
        "newsId": 4258122,
        "title": "馬蒂斯辭任美國國防部長 稱與川普存在分歧",
      },
      Object {
        "coverSrc": Object {
          "l": Object {
            "src": "https://cimg.cnyes.cool/prod/news/4258104/l/dc61cb343479aa56e53679bf2176898e.jpg",
          },
          "m": Object {
            "src": "https://cimg.cnyes.cool/prod/news/4258104/m/dc61cb343479aa56e53679bf2176898e.jpg",
          },
          "xl": Object {
            "src": "https://cimg.cnyes.cool/prod/news/4258104/xl/dc61cb343479aa56e53679bf2176898e.jpg",
          },
        },
        "hasCoverPhoto": 1,
        "newsId": 4258104,
        "title": "道瓊指數連兩日大跌 美財政部長：市場對鮑爾談話反應過度",
      },
    ]
  }
  linkClickCb={null}
  openNewTab={true}
  speed={1000}
>
  <DFPProvider
    loadGPT={false}
    onSlotRenderEnded={[Function]}
  >
    <div>
      <div
        className="wrapper"
        data-mode="STOP"
        onMouseEnter={[Function]}
        onMouseLeave={[Function]}
      >
        <div
          className="slider"
          style={
            Object {
              "transform": "translateX(0%)",
            }
          }
        >
          <a
            className="news"
            href="https://news.cnyes.com/news/id/4257985"
            key="4257985-0"
            onClick={[Function]}
            rel="noopener noreferrer"
            style={
              Object {
                "backgroundImage": "url(https://cimg.cnyes.cool/prod/news/4257985/l/04690339c84abdce487064140b136e2a.jpg)",
              }
            }
            target="_blank"
          >
            <div
              className="title"
            >
              <p>
                繼中國禁售令之後 德國暫停銷售iPhone 7和iPhone 8
              </p>
            </div>
          </a>
          <a
            className="news"
            href="https://news.cnyes.com/news/id/4258122"
            key="4258122-1"
            onClick={[Function]}
            rel="noopener noreferrer"
            style={
              Object {
                "backgroundImage": "url(https://cimg.cnyes.cool/prod/news/4258122/l/8e02b6a7af860076a90f41944a7927ba.jpg)",
              }
            }
            target="_blank"
          >
            <div
              className="title"
            >
              <p>
                馬蒂斯辭任美國國防部長 稱與川普存在分歧
              </p>
            </div>
          </a>
          <a
            className="news"
            href="https://news.cnyes.com/news/id/4258104"
            key="4258104-2"
            onClick={[Function]}
            rel="noopener noreferrer"
            style={
              Object {
                "backgroundImage": "url(https://cimg.cnyes.cool/prod/news/4258104/l/dc61cb343479aa56e53679bf2176898e.jpg)",
              }
            }
            target="_blank"
          >
            <div
              className="title"
            >
              <p>
                道瓊指數連兩日大跌 美財政部長：市場對鮑爾談話反應過度
              </p>
            </div>
          </a>
          <a
            className="news"
            href="https://news.cnyes.com/news/id/4257985"
            key="4257985-3"
            onClick={[Function]}
            rel="noopener noreferrer"
            style={
              Object {
                "backgroundImage": "url(https://cimg.cnyes.cool/prod/news/4257985/l/04690339c84abdce487064140b136e2a.jpg)",
              }
            }
            target="_blank"
          >
            <div
              className="title"
            >
              <p>
                繼中國禁售令之後 德國暫停銷售iPhone 7和iPhone 8
              </p>
            </div>
          </a>
        </div>
        <button
          className="prev"
          data-mode="SLIDE_TO_PREV"
          onClick={[Function]}
          onMouseEnter={[Function]}
          onMouseLeave={[Function]}
        />
        <button
          className="next"
          data-mode="SLIDE_TO_NEXT"
          onClick={[Function]}
          onMouseEnter={[Function]}
          onMouseLeave={[Function]}
        />
        <div
          className="dots"
        >
          <button
            className="dot active"
            data-index={0}
            data-mode="SLIDE_TO_INDEX"
            key="0"
            onClick={[Function]}
            onMouseEnter={[Function]}
            onMouseLeave={[Function]}
          />
          <button
            className="dot"
            data-index={1}
            data-mode="SLIDE_TO_INDEX"
            key="1"
            onClick={[Function]}
            onMouseEnter={[Function]}
            onMouseLeave={[Function]}
          />
          <button
            className="dot"
            data-index={2}
            data-mode="SLIDE_TO_INDEX"
            key="2"
            onClick={[Function]}
            onMouseEnter={[Function]}
            onMouseLeave={[Function]}
          />
        </div>
      </div>
    </div>
  </DFPProvider>
</SlidingNews>
`;
