// Jest Snapshot v1, https://goo.gl/fbAQLP

exports[`component <Modal /> should be same as snapshot 1`] = `
<div
  className="modal-wrapper invisible"
>
  <div
    className="modal"
    style={
      Object {
        "minHeight": "0px",
      }
    }
  >
    <div
      className="anue-line"
    >
      <div
        className="blue"
      />
      <div
        className="red"
      />
      <div
        className="yellow"
      />
    </div>
  </div>
</div>
`;

exports[`component <Modal.Description /> should be same as snapshot 1`] = `
<div
  className="modal__description"
>
  description
</div>
`;

exports[`component <Modal.MajorButton /> should be same as snapshot 1`] = `
<Component
  disabled={false}
  onClick={[Function]}
>
  <button
    className="modal__button--major"
    disabled={false}
    onClick={[Function]}
  >
    major-button
  </button>
</Component>
`;

exports[`component <Modal.MinorButton /> should be same as snapshot 1`] = `
<Component
  disabled={false}
  onClick={[Function]}
>
  <button
    className="modal__button--minor"
    disabled={false}
    onClick={[Function]}
  >
    minor-button
  </button>
</Component>
`;

exports[`component <Modal.Title /> should be same as snapshot 1`] = `
<div
  className="modal__title"
>
  title
</div>
`;
