// Jest Snapshot v1, https://goo.gl/fbAQLP

exports[`LoginModal should be same as snapshot 1`] = `"<div class=\\"wrapper\\"><div class=\\"container\\"><div class=\\"close-handle\\"></div><div class=\\"login-modal-wrapper\\"><h2>登入</h2><button class=\\"login-button-facebook\\"></button><button class=\\"login-button-google\\"></button><div class=\\"footer\\"><p><!-- react-text: 10 -->註冊前請詳閱<!-- /react-text --><!-- react-text: 11 --> <!-- /react-text --><a href=\\"/agreement\\" target=\\"_blank\\" rel=\\"noopener noreferrer\\" class=\\"agreement\\">會員服務條款</a></p><p>如您登入會員，即視為您已暸解並同意此條款。</p></div></div></div></div>"`;
