// Jest Snapshot v1, https://goo.gl/fbAQLP

exports[`<FastLinkBlock /> should be nice 1`] = `
"<FastLinkBlock blockWrapperClassName=\\"\\" blockClassName=\\"\\" mode=\\"responsive\\" fastLinkConfig={{...}}>
  <div className=\\"fast-link-container\\">
    <a className=\\"fast-link-block\\" href=\\"https://www.cnyes.com/\\">
      <div style={{...}} className=\\"link-img-m\\" />
      <div className=\\"text\\">
        立即前往
      </div>
    </a>
    <a className=\\"fast-link-block\\" href=\\"https://www.cnyes.com/video/cat/all\\">
      <div className=\\"title\\">
        影音專區
      </div>
      <div className=\\"text\\">
        立即前往
      </div>
    </a>
    <a className=\\"fast-link-block\\" href=\\"https://invest.anue.com/\\">
      <div style={{...}} className=\\"link-img-l\\" />
      <div className=\\"text\\">
        立即前往
      </div>
    </a>
  </div>
</FastLinkBlock>"
`;
