// Jest Snapshot v1, https://goo.gl/fbAQLP

exports[`<NotFound /> should be nice 1`] = `
"<NotFound rootStyle={{...}} containerClassName=\\"\\" blockWrapperClassName=\\"\\" blockClassName=\\"\\" mode=\\"responsive\\" fastLinkConfig={{...}}>
  <section className=\\"notfound-section\\" style={{...}}>
    <div className=\\"notfound\\">
      <h1>
        404
      </h1>
      <h2>
        糟糕找不到網頁
      </h2>
      <h3>
        休息一下，人生需要點空白，有時候投資也是。
      </h3>
      <FastLinkBlock blockWrapperClassName=\\"\\" blockClassName=\\"\\" mode=\\"responsive\\" fastLinkConfig={{...}}>
        <div className=\\"fast-link-container\\">
          <a className=\\"fast-link-block\\" href=\\"https://www.cnyes.com/\\">
            <div style={{...}} className=\\"link-img-m\\" />
            <div className=\\"text\\">
              立即前往
            </div>
          </a>
          <a className=\\"fast-link-block\\" href=\\"https://www.cnyes.com/video/cat/all\\">
            <div className=\\"title\\">
              影音專區
            </div>
            <div className=\\"text\\">
              立即前往
            </div>
          </a>
          <a className=\\"fast-link-block\\" href=\\"https://invest.anue.com/\\">
            <div style={{...}} className=\\"link-img-l\\" />
            <div className=\\"text\\">
              立即前往
            </div>
          </a>
        </div>
      </FastLinkBlock>
    </div>
  </section>
</NotFound>"
`;
