<?xml version="1.0" encoding="utf-8"?>
<!-- Generator: Adobe Illustrator 23.0.3, SVG Export Plug-In . SVG Version: 6.00 Build 0)  -->
<svg version="1.1" id="圖層_1" xmlns="http://www.w3.org/2000/svg" xmlns:xlink="http://www.w3.org/1999/xlink" x="0px" y="0px"
	 viewBox="0 0 108 45" style="enable-background:new 0 0 108 45;" xml:space="preserve">
<style type="text/css">
	.st0{fill:#F9A532;}
	.st1{fill:#3DC1CE;}
	.st2{fill:#EF4E28;}
	.st3{fill:#221E1F;}
</style>
<g>
	<g>
		<g>
			<path class="st0" d="M27.53,43.86h-4.04c0-10.71,8.71-19.42,19.42-19.42v4.04C34.43,28.48,27.53,35.38,27.53,43.86z"/>
		</g>
		<g>
			<path class="st1" d="M3.86,43.86H0C0,20.2,19.25,0.95,42.91,0.95v3.87C21.38,4.82,3.86,22.33,3.86,43.86z"/>
		</g>
		<g>
			<path class="st2" d="M18.73,43.86h-4.12c0-15.6,12.69-28.29,28.29-28.29v4.11C29.58,19.68,18.73,30.53,18.73,43.86z"/>
		</g>
	</g>
	<g>
		<path class="st3" d="M52.88,34.09l-2.05,0.42c0.38,1.39,0.75,3.14,1.13,5.22l2.05-0.44C53.63,37.42,53.26,35.67,52.88,34.09z"/>
		<path class="st3" d="M58.15,13.46h0.05v1.51h4.18V0.98H58.2v1.49h-0.05c-0.51-0.86-1.79-1.97-4.08-1.97
			c-3.73,0-7.03,2.87-7.03,7.46c0,4.01,2.6,7.49,7.03,7.49C55.71,15.45,57.45,14.82,58.15,13.46z M51.22,8.01
			c0-1.59,1.06-3.6,3.46-3.6c2.37,0,3.53,1.87,3.53,3.55c0,1.36-0.88,3.58-3.5,3.58C52.18,11.54,51.22,9.32,51.22,8.01z"/>
		<path class="st3" d="M75.52,1.71c-0.76-0.65-2.24-1.21-3.58-1.21c-2.5,0-3.38,1.29-3.81,1.97h-0.05V0.98h-3.91v13.99h4.19V7.36
			c0-0.86,0-2.93,2.39-2.93c2.19,0,2.19,1.92,2.19,2.9v7.64h4.18V6.22C77.13,3.48,76.28,2.37,75.52,1.71z"/>
		<path class="st3" d="M84.17,15.42c1.06,0,2.77-0.15,3.63-1.94h0.05v1.49h3.96V0.98h-4.18v7.69c0,2.22-1.19,2.85-2.39,2.85
			c-2.25,0-2.25-1.84-2.25-2.8V0.98H78.8v8.37c0,1.91,0.15,2.92,1.26,4.31C81.29,15.22,83.31,15.42,84.17,15.42z"/>
		<path class="st3" d="M100.61,0.5c-4.26,0-7.33,3.6-7.33,7.51c0,4.16,3.4,7.41,7.41,7.41c1.44,0,2.82-0.43,3.98-1.26
			c1.19-0.81,2.17-2.02,2.85-3.58h-4.28c-0.58,0.73-1.26,1.31-2.54,1.31c-1.64,0-3.03-0.98-3.28-2.64h10.49
			c0.05-0.33,0.1-0.56,0.1-1.11C108,3.88,104.87,0.5,100.61,0.5z M97.46,6.42c0.18-0.83,1.01-2.39,3.18-2.39
			c2.17,0,3,1.56,3.18,2.39H97.46z"/>
		<path class="st3" d="M60.13,27.37l1.67-1.53c-1.41-1.8-2.92-3.55-4.5-5.22l0.23-0.75l-2.05-0.64c-1.41,2.66-3.18,4.86-5.28,6.61
			l1.01,2.05c0.52-0.36,0.98-0.75,1.36-1.19v1.41h2.14v2.5h-3.84v1.94h3.84v8.35l-4.39,0.64l0.43,2.08l10.16-1.53l0.23-2.05
			l-4.3,0.64v-8.13h3.96v-1.94h-3.96v-2.5h2.16v-1.94h-5.66c1.21-1.3,2.11-2.58,2.71-3.8C57.56,24.04,58.92,25.71,60.13,27.37z"/>
		<path class="st3" d="M57.5,38.97l2.02,0.53c0.46-1.53,0.95-3.19,1.47-5l-2.02-0.42C58.6,35.67,58.11,37.31,57.5,38.97z"/>
		<path class="st3" d="M80.05,35.5h17.49l-6.67,2.05v3.97c0,0.69-0.46,1-1.13,1c-1.13,0-3.03-0.14-4.68-0.28l0.61,2.14
			c1.27,0.08,2.6,0.11,4.1,0.11c2.34,0,3.58-1.05,3.58-2.94v-2.8l9.7-3.36v-1.86H80.05V35.5z"/>
		<path class="st3" d="M64.49,36.37l9.56-0.01c0.33,0,0.59-0.26,0.6-0.58v-7.81c0-0.32-0.26-0.58-0.58-0.6h-9.59V22.6h11.4v-1.97
			H62.84c-0.34,0-0.61,0.27-0.61,0.61v21.68c0,0.34,0.27,0.61,0.61,0.61h13.36v-1.97H64.49V36.37z M64.49,29.32h7.88v5.08h-7.88
			V29.32z"/>
		<path class="st3" d="M101.09,32.04c0.34,0,0.61-0.27,0.61-0.61v-4.86c0-0.34-0.27-0.61-0.61-0.61H83.14
			c-0.34,0-0.61,0.27-0.61,0.61v4.86c0,0.34,0.27,0.61,0.61,0.61H101.09z M85.01,27.79h14.2v2.39h-14.2V27.79z"/>
		<polygon class="st3" points="93.25,19.24 90.97,19.24 90.97,22.49 79.27,22.49 79.27,24.43 105.08,24.43 105.08,22.49 
			93.25,22.49 		"/>
	</g>
</g>
</svg>
